%YAML 1.1
%TAG !u! tag:unity3d.com,2011:
--- !u!1001 &6082828714052583180
PrefabInstance:
  m_ObjectHideFlags: 0
  serializedVersion: 2
  m_Modification:
    m_TransformParent: {fileID: 0}
    m_Modifications:
    - target: {fileID: 7006997606587834419, guid: e45ab5e1fe28e984e9ce909c908557d1, type: 3}
      propertyPath: m_RootOrder
      value: 0
      objectReference: {fileID: 0}
    - target: {fileID: 7006997606587834419, guid: e45ab5e1fe28e984e9ce909c908557d1, type: 3}
      propertyPath: m_LocalPosition.x
      value: 0
      objectReference: {fileID: 0}
    - target: {fileID: 7006997606587834419, guid: e45ab5e1fe28e984e9ce909c908557d1, type: 3}
      propertyPath: m_LocalPosition.y
      value: 0
      objectReference: {fileID: 0}
    - target: {fileID: 7006997606587834419, guid: e45ab5e1fe28e984e9ce909c908557d1, type: 3}
      propertyPath: m_LocalPosition.z
      value: 0
      objectReference: {fileID: 0}
    - target: {fileID: 7006997606587834419, guid: e45ab5e1fe28e984e9ce909c908557d1, type: 3}
      propertyPath: m_LocalRotation.w
      value: 1
      objectReference: {fileID: 0}
    - target: {fileID: 7006997606587834419, guid: e45ab5e1fe28e984e9ce909c908557d1, type: 3}
      propertyPath: m_LocalRotation.x
      value: 0
      objectReference: {fileID: 0}
    - target: {fileID: 7006997606587834419, guid: e45ab5e1fe28e984e9ce909c908557d1, type: 3}
      propertyPath: m_LocalRotation.y
      value: 0
      objectReference: {fileID: 0}
    - target: {fileID: 7006997606587834419, guid: e45ab5e1fe28e984e9ce909c908557d1, type: 3}
      propertyPath: m_LocalRotation.z
      value: 0
      objectReference: {fileID: 0}
    - target: {fileID: 7006997606587834419, guid: e45ab5e1fe28e984e9ce909c908557d1, type: 3}
      propertyPath: m_LocalEulerAnglesHint.x
      value: 0
      objectReference: {fileID: 0}
    - target: {fileID: 7006997606587834419, guid: e45ab5e1fe28e984e9ce909c908557d1, type: 3}
      propertyPath: m_LocalEulerAnglesHint.y
      value: 0
      objectReference: {fileID: 0}
    - target: {fileID: 7006997606587834419, guid: e45ab5e1fe28e984e9ce909c908557d1, type: 3}
      propertyPath: m_LocalEulerAnglesHint.z
      value: 0
      objectReference: {fileID: 0}
    - target: {fileID: 8672281624964188445, guid: e45ab5e1fe28e984e9ce909c908557d1, type: 3}
      propertyPath: m_Name
      value: PinkBG
      objectReference: {fileID: 0}
    - target: {fileID: 8884709213336311329, guid: e45ab5e1fe28e984e9ce909c908557d1, type: 3}
      propertyPath: m_Sprite
      value: 
      objectReference: {fileID: 21300000, guid: 89bcabfc299d43a41a7b03b813452d83, type: 3}
    m_RemovedComponents: []
  m_SourcePrefab: {fileID: 100100000, guid: e45ab5e1fe28e984e9ce909c908557d1, type: 3}
